Analysis 4: Model Selection Via K-Fold CV
…
BEST5.DATA=DATA %>%
            mutate(First=predict(lm(W~poly(A,as.numeric(BEST5.RMSE$I[1]))+poly(D,as.numeric(BEST5.RMSE$J[1])),data=DATA)),
                   Second=predict(lm(W~poly(A,as.numeric(BEST5.RMSE$I[2]))+poly(D,as.numeric(BEST5.RMSE$J[2])),data=DATA)),
                   Third=predict(lm(W~poly(A,as.numeric(BEST5.RMSE$I[3]))+poly(D,as.numeric(BEST5.RMSE$J[3])),data=DATA)),
                   Fourth=predict(lm(W~poly(A,as.numeric(BEST5.RMSE$I[4]))+poly(D,as.numeric(BEST5.RMSE$J[4])),data=DATA)),
                   Fifth=predict(lm(W~poly(A,as.numeric(BEST5.RMSE$I[5]))+poly(D,as.numeric(BEST5.RMSE$J[5])),data=DATA)))

Then, I want you to use the pipe %>% with gather() to create a new tibble called BEST5.DATA2 that gathers all the predictions. A variable named Model should contain the values First,Second,Third,Fourth, and Fifth. A variable named Predict should contain the predictions corresponding to the appropriate models. In gather(), be sure to set factor_key=T to ensure that the new variable Model is a factor variable with ordered levels logically from First to Fifth.

Code and Output:

BEST5.DATA2 = BEST5.DATA %>% gather(key = "Model", "First", "Second", "Third", "Fourth", "Fifth", value = "Predict", factor_key=T)
BEST5.DATA2

## # A tibble: 49,285 x 7
##        D     L     W     A     T Model Predict
##    <dbl> <dbl> <dbl> <dbl> <dbl> <fct>   <dbl>
##  1     1   103  14.2  21.2     1 First   12.9 
##  2     2   103  14.4  16.8     2 First   11.3 
##  3     3   103  14.4  15.4     3 First   10.8 
##  4     4   103  10.9  10.8     4 First    9.32
##  5     5   103  10.8  11.7     5 First    9.57
##  6     6   103  10.7  12.4     6 First    9.77
##  7     7   103  10.3  13.2     7 First   10.0 
##  8     8   103  10.1  11.8     8 First    9.56
##  9     9   103   9.8   5.1     9 First    7.64
## 10    10   103  10.5   3.5    10 First    7.19
## # ... with 49,275 more rows
…
